%YAML 1.1
%TAG !u! tag:unity3d.com,2011:
--- !u!1 &100000
GameObject:
  m_ObjectHideFlags: 0
  m_PrefabParentObject: {fileID: 0}
  m_PrefabInternal: {fileID: 100100000}
  serializedVersion: 4
  m_Component:
  - 4: {fileID: 400000}
  - 114: {fileID: 11400000}
  m_Layer: 0
  m_Name: UIDemoSpriteCollection
  m_TagString: Untagged
  m_Icon: {fileID: 0}
  m_NavMeshLayer: 0
  m_StaticEditorFlags: 0
  m_IsActive: 1
--- !u!4 &400000
Transform:
  m_ObjectHideFlags: 1
  m_PrefabParentObject: {fileID: 0}
  m_PrefabInternal: {fileID: 100100000}
  m_GameObject: {fileID: 100000}
  m_LocalRotation: {x: 0, y: 0, z: 0, w: 1}
  m_LocalPosition: {x: 0, y: 0, z: 0}
  m_LocalScale: {x: 1, y: 1, z: 1}
  m_Children: []
  m_Father: {fileID: 0}
  m_RootOrder: 0
--- !u!114 &11400000
MonoBehaviour:
  m_ObjectHideFlags: 1
  m_PrefabParentObject: {fileID: 0}
  m_PrefabInternal: {fileID: 100100000}
  m_GameObject: {fileID: 100000}
  m_Enabled: 1
  m_EditorHideFlags: 0
  m_Script: {fileID: 11500000, guid: d546f34a90531a14eaba82a43b05b86b, type: 3}
  m_Name: 
  m_EditorClassIdentifier: 
  version: 3
  materialIdsValid: 1
  needMaterialInstance: 0
  spriteDefinitions:
  - name: SlicedButton
    boundsData:
    - {x: -3.7252903e-09, y: -.0078125, z: 0}
    - {x: .1875, y: .259375006, z: 0}
    untrimmedBoundsData:
    - {x: 0, y: 0, z: 0}
    - {x: .206249997, y: .275000006, z: 0}
    texelSize: {x: .00312500005, y: .00312500005}
    positions:
    - {x: -.09375, y: -.137500003, z: 0}
    - {x: .0937499925, y: -.137500003, z: 0}
    - {x: -.09375, y: .121875003, z: 0}
    - {x: .0937499925, y: .121875003, z: 0}
    normals: []
    tangents: []
    uvs:
    - {x: .00781640597, y: .00781640597}
    - {x: .242183596, y: .00781640597}
    - {x: .00781640597, y: .332027346}
    - {x: .242183596, y: .332027346}
    indices: 000000000300000001000000020000000300000000000000
    material: {fileID: 2100000, guid: c588c2d12d3f5514195827aeb65feb8a, type: 2}
    materialId: 0
    sourceTextureGUID: 10b038b1b05b3d44998364213b44a84b
    extractRegion: 0
    regionX: 0
    regionY: 0
    regionW: 0
    regionH: 0
    flipped: 0
    complexGeometry: 0
    colliderType: 0
    colliderVertices: []
    colliderIndicesFwd: 
    colliderIndicesBack: 
    colliderConvex: 0
    colliderSmoothSphereCollisions: 0
  - name: background
    boundsData:
    - {x: 0, y: 0, z: 0}
    - {x: .0500000007, y: .0500000007, z: 0}
    untrimmedBoundsData:
    - {x: 0, y: 0, z: 0}
    - {x: .0500000007, y: .0500000007, z: 0}
    texelSize: {x: .00312500005, y: .00312500005}
    positions:
    - {x: -.0250000004, y: -.0250000004, z: 0}
    - {x: .0250000004, y: -.0250000004, z: 0}
    - {x: -.0250000004, y: .0250000004, z: 0}
    - {x: .0250000004, y: .0250000004, z: 0}
    normals: []
    tangents: []
    uvs:
    - {x: .148441404, y: .925785184}
    - {x: .210933596, y: .925785184}
    - {x: .148441404, y: .988277316}
    - {x: .210933596, y: .988277316}
    indices: 000000000300000001000000020000000300000000000000
    material: {fileID: 2100000, guid: c588c2d12d3f5514195827aeb65feb8a, type: 2}
    materialId: 0
    sourceTextureGUID: cdb8375bd7d44bf4c91ea5d1757cbc23
    extractRegion: 0
    regionX: 0
    regionY: 0
    regionW: 0
    regionH: 0
    flipped: 0
    complexGeometry: 0
    colliderType: 0
    colliderVertices: []
    colliderIndicesFwd: 
    colliderIndicesBack: 
    colliderConvex: 0
    colliderSmoothSphereCollisions: 0
  - name: SlicedButton_Hover
    boundsData:
    - {x: -3.7252903e-09, y: -.0078125, z: 0}
    - {x: .1875, y: .259375006, z: 0}
    untrimmedBoundsData:
    - {x: 0, y: 0, z: 0}
    - {x: .206249997, y: .275000006, z: 0}
    texelSize: {x: .00312500005, y: .00312500005}
    positions:
    - {x: -.09375, y: -.137500003, z: 0}
    - {x: .0937499925, y: -.137500003, z: 0}
    - {x: -.09375, y: .121875003, z: 0}
    - {x: .0937499925, y: .121875003, z: 0}
    normals: []
    tangents: []
    uvs:
    - {x: .00781640597, y: .347660154}
    - {x: .242183596, y: .347660154}
    - {x: .00781640597, y: .671871066}
    - {x: .242183596, y: .671871066}
    indices: 000000000300000001000000020000000300000000000000
    material: {fileID: 2100000, guid: c588c2d12d3f5514195827aeb65feb8a, type: 2}
    materialId: 0
    sourceTextureGUID: f3237190127778749a1642dc2a51c774
    extractRegion: 0
    regionX: 0
    regionY: 0
    regionW: 0
    regionH: 0
    flipped: 0
    complexGeometry: 0
    colliderType: 0
    colliderVertices: []
    colliderIndicesFwd: 
    colliderIndicesBack: 
    colliderConvex: 0
    colliderSmoothSphereCollisions: 0
  - name: InputItemBackground
    boundsData:
    - {x: -.00312500075, y: -.00156249478, z: 0}
    - {x: .131249994, y: .153125018, z: 0}
    untrimmedBoundsData:
    - {x: 0, y: -.00156249851, z: 0}
    - {x: .143749997, y: .165625006, z: 0}
    texelSize: {x: .00312500005, y: .00312500005}
    positions:
    - {x: -.0687500015, y: -.078125, z: 0}
    - {x: .0625, y: -.078125, z: 0}
    - {x: -.0687500015, y: .0750000104, z: 0}
    - {x: .0625, y: .0750000104, z: 0}
    normals: []
    tangents: []
    uvs:
    - {x: .257816404, y: .437503904}
    - {x: .421871096, y: .437503904}
    - {x: .257816404, y: .628902316}
    - {x: .421871096, y: .628902316}
    indices: 000000000300000001000000020000000300000000000000
    material: {fileID: 2100000, guid: c588c2d12d3f5514195827aeb65feb8a, type: 2}
    materialId: 0
    sourceTextureGUID: c7b713dc540174c40a68af7867190a07
    extractRegion: 0
    regionX: 0
    regionY: 0
    regionW: 0
    regionH: 0
    flipped: 0
    complexGeometry: 0
    colliderType: 0
    colliderVertices: []
    colliderIndicesFwd: 
    colliderIndicesBack: 
    colliderConvex: 0
    colliderSmoothSphereCollisions: 0
  - name: InputItemBackgroundHover
    boundsData:
    - {x: -.00312500075, y: -.00156249478, z: 0}
    - {x: .131249994, y: .153125018, z: 0}
    untrimmedBoundsData:
    - {x: 0, y: -.00156249851, z: 0}
    - {x: .143749997, y: .165625006, z: 0}
    texelSize: {x: .00312500005, y: .00312500005}
    positions:
    - {x: -.0687500015, y: -.078125, z: 0}
    - {x: .0625, y: -.078125, z: 0}
    - {x: -.0687500015, y: .0750000104, z: 0}
    - {x: .0625, y: .0750000104, z: 0}
    normals: []
    tangents: []
    uvs:
    - {x: .421878904, y: .644535184}
    - {x: .585933566, y: .644535184}
    - {x: .421878904, y: .835933566}
    - {x: .585933566, y: .835933566}
    indices: 000000000300000001000000020000000300000000000000
    material: {fileID: 2100000, guid: c588c2d12d3f5514195827aeb65feb8a, type: 2}
    materialId: 0
    sourceTextureGUID: a0607e12e73242f48a033d14fa2296a7
    extractRegion: 0
    regionX: 0
    regionY: 0
    regionW: 0
    regionH: 0
    flipped: 0
    complexGeometry: 0
    colliderType: 0
    colliderVertices: []
    colliderIndicesFwd: 
    colliderIndicesBack: 
    colliderConvex: 0
    colliderSmoothSphereCollisions: 0
  - name: CheckboxHighlight
    boundsData:
    - {x: -.00156249851, y: -.00156249851, z: 0}
    - {x: .159374997, y: .159375012, z: 0}
    untrimmedBoundsData:
    - {x: 0, y: -.00156249851, z: 0}
    - {x: .174999997, y: .178125009, z: 0}
    texelSize: {x: .00312500005, y: .00312500005}
    positions:
    - {x: -.081249997, y: -.0812500045, z: 0}
    - {x: .078125, y: -.0812500045, z: 0}
    - {x: -.081249997, y: .0781250075, z: 0}
    - {x: .078125, y: .0781250075, z: 0}
    normals: []
    tangents: []
    uvs:
    - {x: .257816404, y: .00781640597}
    - {x: .457027346, y: .00781640597}
    - {x: .257816404, y: .207027346}
    - {x: .457027346, y: .207027346}
    indices: 000000000300000001000000020000000300000000000000
    material: {fileID: 2100000, guid: c588c2d12d3f5514195827aeb65feb8a, type: 2}
    materialId: 0
    sourceTextureGUID: a894d1cc513d8194b80c2ee2188a02f3
    extractRegion: 0
    regionX: 0
    regionY: 0
    regionW: 0
    regionH: 0
    flipped: 0
    complexGeometry: 0
    colliderType: 0
    colliderVertices: []
    colliderIndicesFwd: 
    colliderIndicesBack: 
    colliderConvex: 0
    colliderSmoothSphereCollisions: 0
  - name: Checkbox_X
    boundsData:
    - {x: 0, y: 0, z: 0}
    - {x: .0874999985, y: .0812500045, z: 0}
    untrimmedBoundsData:
    - {x: .00156249851, y: 0, z: 0}
    - {x: .103124999, y: .100000001, z: 0}
    texelSize: {x: .00312500005, y: .00312500005}
    positions:
    - {x: -.0437499993, y: -.0406250022, z: 0}
    - {x: .0437499993, y: -.0406250022, z: 0}
    - {x: -.0437499993, y: .0406250022, z: 0}
    - {x: .0437499993, y: .0406250022, z: 0}
    normals: []
    tangents: []
    uvs:
    - {x: .617191434, y: .00781640597}
    - {x: .726558566, y: .00781640597}
    - {x: .617191434, y: .109371096}
    - {x: .726558566, y: .109371096}
    indices: 000000000300000001000000020000000300000000000000
    material: {fileID: 2100000, guid: c588c2d12d3f5514195827aeb65feb8a, type: 2}
    materialId: 0
    sourceTextureGUID: 39bdc26444063be478543fbf0138d23e
    extractRegion: 0
    regionX: 0
    regionY: 0
    regionW: 0
    regionH: 0
    flipped: 0
    complexGeometry: 0
    colliderType: 0
    colliderVertices: []
    colliderIndicesFwd: 
    colliderIndicesBack: 
    colliderConvex: 0
    colliderSmoothSphereCollisions: 0
  - name: Checkbox
    boundsData:
    - {x: -.00156249851, y: -.00156249851, z: 0}
    - {x: .159374997, y: .159375012, z: 0}
    untrimmedBoundsData:
    - {x: 0, y: -.00156249851, z: 0}
    - {x: .174999997, y: .178125009, z: 0}
    texelSize: {x: .00312500005, y: .00312500005}
    positions:
    - {x: -.081249997, y: -.0812500045, z: 0}
    - {x: .078125, y: -.0812500045, z: 0}
    - {x: -.081249997, y: .0781250075, z: 0}
    - {x: .078125, y: .0781250075, z: 0}
    normals: []
    tangents: []
    uvs:
    - {x: .257816404, y: .222660154}
    - {x: .457027346, y: .222660154}
    - {x: .257816404, y: .421871096}
    - {x: .457027346, y: .421871096}
    indices: 000000000300000001000000020000000300000000000000
    material: {fileID: 2100000, guid: c588c2d12d3f5514195827aeb65feb8a, type: 2}
    materialId: 0
    sourceTextureGUID: 9d92e7051c626e94b9b9cf19dcaa2a66
    extractRegion: 0
    regionX: 0
    regionY: 0
    regionW: 0
    regionH: 0
    flipped: 0
    complexGeometry: 0
    colliderType: 0
    colliderVertices: []
    colliderIndicesFwd: 
    colliderIndicesBack: 
    colliderConvex: 0
    colliderSmoothSphereCollisions: 0
  - name: RadioButtonDot
    boundsData:
    - {x: 0, y: -.00312499888, z: 0}
    - {x: .0375000015, y: .0375000015, z: 0}
    untrimmedBoundsData:
    - {x: 0, y: -.00156250037, z: 0}
    - {x: .0625, y: .0593749993, z: 0}
    texelSize: {x: .00312500005, y: .00312500005}
    positions:
    - {x: -.0187500007, y: -.0218749996, z: 0}
    - {x: .0187500007, y: -.0218749996, z: 0}
    - {x: -.0187500007, y: .0156250019, z: 0}
    - {x: .0187500007, y: .0156250019, z: 0}
    normals: []
    tangents: []
    uvs:
    - {x: .382816404, y: .925785184}
    - {x: .429683596, y: .925785184}
    - {x: .382816404, y: .972652316}
    - {x: .429683596, y: .972652316}
    indices: 000000000300000001000000020000000300000000000000
    material: {fileID: 2100000, guid: c588c2d12d3f5514195827aeb65feb8a, type: 2}
    materialId: 0
    sourceTextureGUID: a0b5fdbef0d8b8c498985af59a362e9f
    extractRegion: 0
    regionX: 0
    regionY: 0
    regionW: 0
    regionH: 0
    flipped: 0
    complexGeometry: 0
    colliderType: 0
    colliderVertices: []
    colliderIndicesFwd: 
    colliderIndicesBack: 
    colliderConvex: 0
    colliderSmoothSphereCollisions: 0
  - name: RadioButton
    boundsData:
    - {x: 0, y: -.00312499702, z: 0}
    - {x: .100000001, y: .100000001, z: 0}
    untrimmedBoundsData:
    - {x: .00156250037, y: -.00156249851, z: 0}
    - {x: .121875003, y: .121875003, z: 0}
    texelSize: {x: .00312500005, y: .00312500005}
    positions:
    - {x: -.0500000007, y: -.0531249978, z: 0}
    - {x: .0500000007, y: -.0531249978, z: 0}
    - {x: -.0500000007, y: .0468750037, z: 0}
    - {x: .0500000007, y: .0468750037, z: 0}
    normals: []
    tangents: []
    uvs:
    - {x: .472660154, y: .00781640597}
    - {x: .597652316, y: .00781640597}
    - {x: .472660154, y: .132808596}
    - {x: .597652316, y: .132808596}
    indices: 000000000300000001000000020000000300000000000000
    material: {fileID: 2100000, guid: c588c2d12d3f5514195827aeb65feb8a, type: 2}
    materialId: 0
    sourceTextureGUID: f633ebe752e68f44f984163a0b5f19b0
    extractRegion: 0
    regionX: 0
    regionY: 0
    regionW: 0
    regionH: 0
    flipped: 0
    complexGeometry: 0
    colliderType: 0
    colliderVertices: []
    colliderIndicesFwd: 
    colliderIndicesBack: 
    colliderConvex: 0
    colliderSmoothSphereCollisions: 0
  - name: RadioButtonHover
    boundsData:
    - {x: 0, y: -.00312499702, z: 0}
    - {x: .100000001, y: .100000001, z: 0}
    untrimmedBoundsData:
    - {x: .00156250037, y: -.00156249851, z: 0}
    - {x: .121875003, y: .121875003, z: 0}
    texelSize: {x: .00312500005, y: .00312500005}
    positions:
    - {x: -.0500000007, y: -.0531249978, z: 0}
    - {x: .0500000007, y: -.0531249978, z: 0}
    - {x: -.0500000007, y: .0468750037, z: 0}
    - {x: .0500000007, y: .0468750037, z: 0}
    normals: []
    tangents: []
    uvs:
    - {x: .472660154, y: .148441404}
    - {x: .597652316, y: .148441404}
    - {x: .472660154, y: .273433596}
    - {x: .597652316, y: .273433596}
    indices: 000000000300000001000000020000000300000000000000
    material: {fileID: 2100000, guid: c588c2d12d3f5514195827aeb65feb8a, type: 2}
    materialId: 0
    sourceTextureGUID: 501566f271035e14ea9d5deca292ad9c
    extractRegion: 0
    regionX: 0
    regionY: 0
    regionW: 0
    regionH: 0
    flipped: 0
    complexGeometry: 0
    colliderType: 0
    colliderVertices: []
    colliderIndicesFwd: 
    colliderIndicesBack: 
    colliderConvex: 0
    colliderSmoothSphereCollisions: 0
  - name: DropDownButton
    boundsData:
    - {x: -.00156249851, y: -.00468749925, z: 0}
    - {x: .178124994, y: .153124988, z: 0}
    untrimmedBoundsData:
    - {x: 0, y: 0, z: 0}
    - {x: .206249997, y: .174999997, z: 0}
    texelSize: {x: .00312500005, y: .00312500005}
    positions:
    - {x: -.0906249955, y: -.081249997, z: 0}
    - {x: .0874999985, y: -.081249997, z: 0}
    - {x: -.0906249955, y: .0718749985, z: 0}
    - {x: .0874999985, y: .0718749985, z: 0}
    normals: []
    tangents: []
    uvs:
    - {x: .00781640597, y: .687503934}
    - {x: .00781640597, y: .910152316}
    - {x: .199214846, y: .687503934}
    - {x: .199214846, y: .910152316}
    indices: 000000000300000001000000020000000300000000000000
    material: {fileID: 2100000, guid: c588c2d12d3f5514195827aeb65feb8a, type: 2}
    materialId: 0
    sourceTextureGUID: accb00e270a9cec42addd7602ee0264c
    extractRegion: 0
    regionX: 0
    regionY: 0
    regionW: 0
    regionH: 0
    flipped: 1
    complexGeometry: 0
    colliderType: 0
    colliderVertices: []
    colliderIndicesFwd: 
    colliderIndicesBack: 
    colliderConvex: 0
    colliderSmoothSphereCollisions: 0
  - name: InputItemBackgroundHoverSolid
    boundsData:
    - {x: -.00312500075, y: -.00156249478, z: 0}
    - {x: .131249994, y: .153125018, z: 0}
    untrimmedBoundsData:
    - {x: 0, y: -.00156249851, z: 0}
    - {x: .143749997, y: .165625006, z: 0}
    texelSize: {x: .00312500005, y: .00312500005}
    positions:
    - {x: -.0687500015, y: -.078125, z: 0}
    - {x: .0625, y: -.078125, z: 0}
    - {x: -.0687500015, y: .0750000104, z: 0}
    - {x: .0625, y: .0750000104, z: 0}
    normals: []
    tangents: []
    uvs:
    - {x: .437503904, y: .437503904}
    - {x: .601558566, y: .437503904}
    - {x: .437503904, y: .628902316}
    - {x: .601558566, y: .628902316}
    indices: 000000000300000001000000020000000300000000000000
    material: {fileID: 2100000, guid: c588c2d12d3f5514195827aeb65feb8a, type: 2}
    materialId: 0
    sourceTextureGUID: e4c720a60ede1944b957ba5ae82437bb
    extractRegion: 0
    regionX: 0
    regionY: 0
    regionW: 0
    regionH: 0
    flipped: 0
    complexGeometry: 0
    colliderType: 0
    colliderVertices: []
    colliderIndicesFwd: 
    colliderIndicesBack: 
    colliderConvex: 0
    colliderSmoothSphereCollisions: 0
  - name: DropDownButtonHover
    boundsData:
    - {x: -.00156249851, y: -.00468749925, z: 0}
    - {x: .178124994, y: .153124988, z: 0}
    untrimmedBoundsData:
    - {x: 0, y: 0, z: 0}
    - {x: .206249997, y: .174999997, z: 0}
    texelSize: {x: .00312500005, y: .00312500005}
    positions:
    - {x: -.0906249955, y: -.081249997, z: 0}
    - {x: .0874999985, y: -.081249997, z: 0}
    - {x: -.0906249955, y: .0718749985, z: 0}
    - {x: .0874999985, y: .0718749985, z: 0}
    normals: []
    tangents: []
    uvs:
    - {x: .214847654, y: .687503934}
    - {x: .214847654, y: .910152316}
    - {x: .406246096, y: .687503934}
    - {x: .406246096, y: .910152316}
    indices: 000000000300000001000000020000000300000000000000
    material: {fileID: 2100000, guid: c588c2d12d3f5514195827aeb65feb8a, type: 2}
    materialId: 0
    sourceTextureGUID: 8b1d935dde7b96146bbc799a60202c2c
    extractRegion: 0
    regionX: 0
    regionY: 0
    regionW: 0
    regionH: 0
    flipped: 1
    complexGeometry: 0
    colliderType: 0
    colliderVertices: []
    colliderIndicesFwd: 
    colliderIndicesBack: 
    colliderConvex: 0
    colliderSmoothSphereCollisions: 0
  - name: ScrollbarButtonUpDown
    boundsData:
    - {x: 0, y: -.00156249851, z: 0}
    - {x: .100000001, y: .109375, z: 0}
    untrimmedBoundsData:
    - {x: 0, y: 0, z: 0}
    - {x: .112500004, y: .118749999, z: 0}
    texelSize: {x: .00312500005, y: .00312500005}
    positions:
    - {x: -.0500000007, y: -.0562499985, z: 0}
    - {x: .0500000007, y: -.0562499985, z: 0}
    - {x: -.0500000007, y: .0531250015, z: 0}
    - {x: .0500000007, y: .0531250015, z: 0}
    normals: []
    tangents: []
    uvs:
    - {x: .632816434, y: .832035184}
    - {x: .757808566, y: .832035184}
    - {x: .632816434, y: .968746066}
    - {x: .757808566, y: .968746066}
    indices: 000000000300000001000000020000000300000000000000
    material: {fileID: 2100000, guid: c588c2d12d3f5514195827aeb65feb8a, type: 2}
    materialId: 0
    sourceTextureGUID: bee881e7b06f83347a7986eaecec6ef3
    extractRegion: 0
    regionX: 0
    regionY: 0
    regionW: 0
    regionH: 0
    flipped: 0
    complexGeometry: 0
    colliderType: 0
    colliderVertices: []
    colliderIndicesFwd: 
    colliderIndicesBack: 
    colliderConvex: 0
    colliderSmoothSphereCollisions: 0
  - name: ScrollbarButtonUpDownHover
    boundsData:
    - {x: 0, y: -.00156249851, z: 0}
    - {x: .100000001, y: .109375, z: 0}
    untrimmedBoundsData:
    - {x: 0, y: 0, z: 0}
    - {x: .112500004, y: .118749999, z: 0}
    texelSize: {x: .00312500005, y: .00312500005}
    positions:
    - {x: -.0500000007, y: -.0562499985, z: 0}
    - {x: .0500000007, y: -.0562499985, z: 0}
    - {x: -.0500000007, y: .0531250015, z: 0}
    - {x: .0500000007, y: .0531250015, z: 0}
    normals: []
    tangents: []
    uvs:
    - {x: .742191434, y: .00781640597}
    - {x: .742191434, y: .132808596}
    - {x: .878902316, y: .00781640597}
    - {x: .878902316, y: .132808596}
    indices: 000000000300000001000000020000000300000000000000
    material: {fileID: 2100000, guid: c588c2d12d3f5514195827aeb65feb8a, type: 2}
    materialId: 0
    sourceTextureGUID: 2b9bd56306a6a814984f2763a3fb1c00
    extractRegion: 0
    regionX: 0
    regionY: 0
    regionW: 0
    regionH: 0
    flipped: 1
    complexGeometry: 0
    colliderType: 0
    colliderVertices: []
    colliderIndicesFwd: 
    colliderIndicesBack: 
    colliderConvex: 0
    colliderSmoothSphereCollisions: 0
  - name: ScrollbarThumbButton
    boundsData:
    - {x: -1.86264515e-09, y: 0, z: 0}
    - {x: .099999994, y: .137500003, z: 0}
    untrimmedBoundsData:
    - {x: 0, y: 0, z: 0}
    - {x: .106250003, y: .143749997, z: 0}
    texelSize: {x: .00312500005, y: .00312500005}
    positions:
    - {x: -.0500000007, y: -.0687500015, z: 0}
    - {x: .049999997, y: -.0687500015, z: 0}
    - {x: -.0500000007, y: .0687500015, z: 0}
    - {x: .049999997, y: .0687500015, z: 0}
    normals: []
    tangents: []
    uvs:
    - {x: .445316404, y: .851566434}
    - {x: .445316404, y: .976558566}
    - {x: .617183566, y: .851566434}
    - {x: .617183566, y: .976558566}
    indices: 000000000300000001000000020000000300000000000000
    material: {fileID: 2100000, guid: c588c2d12d3f5514195827aeb65feb8a, type: 2}
    materialId: 0
    sourceTextureGUID: 55998978b6504b14ba04ec09e5082488
    extractRegion: 0
    regionX: 0
    regionY: 0
    regionW: 0
    regionH: 0
    flipped: 1
    complexGeometry: 0
    colliderType: 0
    colliderVertices: []
    colliderIndicesFwd: 
    colliderIndicesBack: 
    colliderConvex: 0
    colliderSmoothSphereCollisions: 0
  - name: ScrollbarThumbButtonHover
    boundsData:
    - {x: -1.86264515e-09, y: 0, z: 0}
    - {x: .099999994, y: .137500003, z: 0}
    untrimmedBoundsData:
    - {x: 0, y: 0, z: 0}
    - {x: .106250003, y: .143749997, z: 0}
    texelSize: {x: .00312500005, y: .00312500005}
    positions:
    - {x: -.0500000007, y: -.0687500015, z: 0}
    - {x: .049999997, y: -.0687500015, z: 0}
    - {x: -.0500000007, y: .0687500015, z: 0}
    - {x: .049999997, y: .0687500015, z: 0}
    normals: []
    tangents: []
    uvs:
    - {x: .601566434, y: .644535184}
    - {x: .726558566, y: .644535184}
    - {x: .601566434, y: .816402316}
    - {x: .726558566, y: .816402316}
    indices: 000000000300000001000000020000000300000000000000
    material: {fileID: 2100000, guid: c588c2d12d3f5514195827aeb65feb8a, type: 2}
    materialId: 0
    sourceTextureGUID: eeaa80b602fa40a42a265023dc9cc359
    extractRegion: 0
    regionX: 0
    regionY: 0
    regionW: 0
    regionH: 0
    flipped: 0
    complexGeometry: 0
    colliderType: 0
    colliderVertices: []
    colliderIndicesFwd: 
    colliderIndicesBack: 
    colliderConvex: 0
    colliderSmoothSphereCollisions: 0
  - name: Scrollbar
    boundsData:
    - {x: .0500000007, y: -.0140625006, z: 0}
    - {x: .100000001, y: .0281250011, z: 0}
    untrimmedBoundsData:
    - {x: .0500000007, y: -.0140625006, z: 0}
    - {x: .100000001, y: .0281250011, z: 0}
    texelSize: {x: .00312500005, y: .00312500005}
    positions:
    - {x: 0, y: -.0281250011, z: 0}
    - {x: .100000001, y: -.0281250011, z: 0}
    - {x: 0, y: 0, z: 0}
    - {x: .100000001, y: 0, z: 0}
    normals: []
    tangents: []
    uvs:
    - {x: .00781640597, y: .925785184}
    - {x: .132808596, y: .925785184}
    - {x: .00781640597, y: .960933566}
    - {x: .132808596, y: .960933566}
    indices: 000000000300000001000000020000000300000000000000
    material: {fileID: 2100000, guid: c588c2d12d3f5514195827aeb65feb8a, type: 2}
    materialId: 0
    sourceTextureGUID: 4334843461093dd42b9d4810d7595958
    extractRegion: 0
    regionX: 0
    regionY: 0
    regionW: 0
    regionH: 0
    flipped: 0
    complexGeometry: 0
    colliderType: 0
    colliderVertices: []
    colliderIndicesFwd: 
    colliderIndicesBack: 
    colliderConvex: 0
    colliderSmoothSphereCollisions: 0
  - name: WhiteSquareAnchorTopLeft
    boundsData:
    - {x: .0250000004, y: -.0250000004, z: 0}
    - {x: .0500000007, y: .0500000007, z: 0}
    untrimmedBoundsData:
    - {x: .0250000004, y: -.0250000004, z: 0}
    - {x: .0500000007, y: .0500000007, z: 0}
    texelSize: {x: .00312500005, y: .00312500005}
    positions:
    - {x: 0, y: -.0500000007, z: 0}
    - {x: .0500000007, y: -.0500000007, z: 0}
    - {x: 0, y: 0, z: 0}
    - {x: .0500000007, y: 0, z: 0}
    normals: []
    tangents: []
    uvs:
    - {x: .226566404, y: .925785184}
    - {x: .289058596, y: .925785184}
    - {x: .226566404, y: .988277316}
    - {x: .289058596, y: .988277316}
    indices: 000000000300000001000000020000000300000000000000
    material: {fileID: 2100000, guid: c588c2d12d3f5514195827aeb65feb8a, type: 2}
    materialId: 0
    sourceTextureGUID: 20bf45e2e89271c43b72895d440f6ab7
    extractRegion: 0
    regionX: 0
    regionY: 0
    regionW: 0
    regionH: 0
    flipped: 0
    complexGeometry: 0
    colliderType: 0
    colliderVertices: []
    colliderIndicesFwd: 
    colliderIndicesBack: 
    colliderConvex: 0
    colliderSmoothSphereCollisions: 0
  - name: 
    boundsData:
    - {x: .0968750045, y: -.0968750045, z: 0}
    - {x: .200000003, y: .200000003, z: 0}
    untrimmedBoundsData:
    - {x: .0968750045, y: -.0968750045, z: 0}
    - {x: .200000003, y: .200000003, z: 0}
    texelSize: {x: .00312500005, y: .00312500005}
    positions:
    - {x: -.00312500005, y: -.196875006, z: 0}
    - {x: .196875006, y: -.196875006, z: 0}
    - {x: -.00312500005, y: .00312499702, z: 0}
    - {x: .196875006, y: .00312499702, z: 0}
    normals: []
    tangents: []
    uvs:
    - {x: .00781640597, y: .976566434}
    - {x: .015621094, y: .976566434}
    - {x: .00781640597, y: .984371066}
    - {x: .015621094, y: .984371066}
    indices: 000000000300000001000000020000000300000000000000
    material: {fileID: 2100000, guid: c588c2d12d3f5514195827aeb65feb8a, type: 2}
    materialId: 0
    sourceTextureGUID: 
    extractRegion: 0
    regionX: 0
    regionY: 0
    regionW: 0
    regionH: 0
    flipped: 0
    complexGeometry: 0
    colliderType: 0
    colliderVertices: []
    colliderIndicesFwd: 
    colliderIndicesBack: 
    colliderConvex: 0
    colliderSmoothSphereCollisions: 0
  - name: WhiteSquare
    boundsData:
    - {x: 0, y: 0, z: 0}
    - {x: .0500000007, y: .0500000007, z: 0}
    untrimmedBoundsData:
    - {x: 0, y: 0, z: 0}
    - {x: .0500000007, y: .0500000007, z: 0}
    texelSize: {x: .00312500005, y: .00312500005}
    positions:
    - {x: -.0250000004, y: -.0250000004, z: 0}
    - {x: .0250000004, y: -.0250000004, z: 0}
    - {x: -.0250000004, y: .0250000004, z: 0}
    - {x: .0250000004, y: .0250000004, z: 0}
    normals: []
    tangents: []
    uvs:
    - {x: .304691404, y: .925785184}
    - {x: .367183596, y: .925785184}
    - {x: .304691404, y: .988277316}
    - {x: .367183596, y: .988277316}
    indices: 000000000300000001000000020000000300000000000000
    material: {fileID: 2100000, guid: c588c2d12d3f5514195827aeb65feb8a, type: 2}
    materialId: 0
    sourceTextureGUID: 197a84f0983385f41a1d2b3cb0a99dd9
    extractRegion: 0
    regionX: 0
    regionY: 0
    regionW: 0
    regionH: 0
    flipped: 0
    complexGeometry: 0
    colliderType: 0
    colliderVertices: []
    colliderIndicesFwd: 
    colliderIndicesBack: 
    colliderConvex: 0
    colliderSmoothSphereCollisions: 0
  premultipliedAlpha: 0
  material: {fileID: 0}
  materials:
  - {fileID: 2100000, guid: c588c2d12d3f5514195827aeb65feb8a, type: 2}
  textures:
  - {fileID: 2800000, guid: f39d3bfc119f6814682c6cd15facf88a, type: 3}
  allowMultipleAtlases: 0
  spriteCollectionGUID: 5d458a11aefe7ec43890453fbb141b28
  spriteCollectionName: UIDemoSpriteCollection
  assetName: 
  loadable: 0
  invOrthoSize: 1
  halfTargetHeight: 320
  buildKey: 1097527407
  dataGuid: a7b2ba5d04adf144faffa96ff7497955
  managedSpriteCollection: 0
  hasPlatformData: 0
  spriteCollectionPlatforms: []
  spriteCollectionPlatformGUIDs: []
--- !u!1001 &100100000
Prefab:
  m_ObjectHideFlags: 1
  serializedVersion: 2
  m_Modification:
    m_TransformParent: {fileID: 0}
    m_Modifications: []
    m_RemovedComponents: []
  m_ParentPrefab: {fileID: 0}
  m_RootGameObject: {fileID: 100000}
  m_IsPrefabParent: 1
  m_IsExploded: 1
