%YAML 1.1
%TAG !u! tag:unity3d.com,2011:
--- !u!1 &100000
GameObject:
  m_ObjectHideFlags: 0
  m_PrefabParentObject: {fileID: 0}
  m_PrefabInternal: {fileID: 100100000}
  serializedVersion: 4
  m_Component:
  - 4: {fileID: 400000}
  - 114: {fileID: 11400000}
  m_Layer: 0
  m_Name: Markers
  m_TagString: Untagged
  m_Icon: {fileID: 0}
  m_NavMeshLayer: 0
  m_StaticEditorFlags: 0
  m_IsActive: 1
--- !u!4 &400000
Transform:
  m_ObjectHideFlags: 1
  m_PrefabParentObject: {fileID: 0}
  m_PrefabInternal: {fileID: 100100000}
  m_GameObject: {fileID: 100000}
  m_LocalRotation: {x: 0, y: 0, z: 0, w: 1}
  m_LocalPosition: {x: 0, y: 0, z: 0}
  m_LocalScale: {x: 1, y: 1, z: 1}
  m_Children: []
  m_Father: {fileID: 0}
  m_RootOrder: 0
--- !u!114 &11400000
MonoBehaviour:
  m_ObjectHideFlags: 1
  m_PrefabParentObject: {fileID: 0}
  m_PrefabInternal: {fileID: 100100000}
  m_GameObject: {fileID: 100000}
  m_Enabled: 1
  m_EditorHideFlags: 0
  m_Script: {fileID: 11500000, guid: d546f34a90531a14eaba82a43b05b86b, type: 3}
  m_Name: 
  m_EditorClassIdentifier: 
  version: 3
  materialIdsValid: 1
  needMaterialInstance: 0
  spriteDefinitions:
  - name: 5
    boundsData:
    - {x: 21, y: -19, z: 0}
    - {x: 38, y: 36, z: 0}
    untrimmedBoundsData:
    - {x: 21, y: -19.5, z: 0}
    - {x: 42, y: 39, z: 0}
    texelSize: {x: 1, y: 1}
    positions:
    - {x: 2, y: -37, z: 0}
    - {x: 32, y: -37, z: 0}
    - {x: 2, y: -6.99999952, z: 0}
    - {x: 32, y: -6.99999952, z: 0}
    - {x: 3.00000024, y: -6.99999952, z: 0}
    - {x: 32, y: -6.99999952, z: 0}
    - {x: 3.00000024, y: -.99999994, z: 0}
    - {x: 32, y: -.99999994, z: 0}
    - {x: 32, y: -36, z: 0}
    - {x: 40, y: -36, z: 0}
    - {x: 32, y: -6.99999952, z: 0}
    - {x: 40, y: -6.99999952, z: 0}
    - {x: 32, y: -6.99999952, z: 0}
    - {x: 34, y: -6.99999952, z: 0}
    - {x: 32, y: -3.99999976, z: 0}
    - {x: 34, y: -3.99999976, z: 0}
    normals: []
    tangents: []
    uvs:
    - {x: .0156328119, y: .406253904}
    - {x: .249992192, y: .406253904}
    - {x: .0156328119, y: .523433566}
    - {x: .249992192, y: .523433566}
    - {x: .523445308, y: .937503934}
    - {x: .749992192, y: .937503934}
    - {x: .523445308, y: .960933566}
    - {x: .749992192, y: .960933566}
    - {x: .921882808, y: .406253904}
    - {x: .984367192, y: .406253904}
    - {x: .921882808, y: .519527316}
    - {x: .984367192, y: .519527316}
    - {x: .859382808, y: .742191434}
    - {x: .874992192, y: .742191434}
    - {x: .859382808, y: .753902316}
    - {x: .874992192, y: .753902316}
    indices: 000000000300000001000000020000000300000000000000040000000700000005000000060000000700000004000000080000000b000000090000000a0000000b000000080000000c0000000f0000000d0000000e0000000f0000000c000000
    material: {fileID: 2100000, guid: 9d9d6be7c81781649af793ee0a5630f4, type: 2}
    materialId: 0
    sourceTextureGUID: 97a0779191739a6468d1ae520ad2c87c
    extractRegion: 0
    regionX: 0
    regionY: 0
    regionW: 0
    regionH: 0
    flipped: 0
    complexGeometry: 0
    colliderType: 0
    colliderVertices: []
    colliderIndicesFwd: 
    colliderIndicesBack: 
    colliderConvex: 0
    colliderSmoothSphereCollisions: 0
  - name: 2_Red
    boundsData:
    - {x: 17.5, y: -20.5, z: 0}
    - {x: 33, y: 39, z: 0}
    untrimmedBoundsData:
    - {x: 18, y: -21.5, z: 0}
    - {x: 36, y: 43, z: 0}
    texelSize: {x: 1, y: 1}
    positions:
    - {x: 1, y: -40, z: 0}
    - {x: 32, y: -40, z: 0}
    - {x: 1, y: -11, z: 0}
    - {x: 32, y: -11, z: 0}
    - {x: 2, y: -11, z: 0}
    - {x: 32, y: -11, z: 0}
    - {x: 2, y: -1.00000048, z: 0}
    - {x: 32, y: -1.00000048, z: 0}
    - {x: 32, y: -31, z: 0}
    - {x: 34, y: -31, z: 0}
    - {x: 32, y: -11, z: 0}
    - {x: 34, y: -11, z: 0}
    - {x: 32, y: -11, z: 0}
    - {x: 34, y: -11, z: 0}
    - {x: 32, y: -5, z: 0}
    - {x: 34, y: -5, z: 0}
    normals: []
    tangents: []
    uvs:
    - {x: .0156328119, y: .664066434}
    - {x: .0156328119, y: .785152316}
    - {x: .242179692, y: .664066434}
    - {x: .242179692, y: .785152316}
    - {x: .812507808, y: .406253904}
    - {x: .812507808, y: .523433566}
    - {x: .890617192, y: .406253904}
    - {x: .890617192, y: .523433566}
    - {x: .273445308, y: .914066434}
    - {x: .273445308, y: .921871066}
    - {x: .429679692, y: .914066434}
    - {x: .429679692, y: .921871066}
    - {x: .531257808, y: .640628934}
    - {x: .531257808, y: .648433566}
    - {x: .578117192, y: .640628934}
    - {x: .578117192, y: .648433566}
    indices: 000000000300000001000000020000000300000000000000040000000700000005000000060000000700000004000000080000000b000000090000000a0000000b000000080000000c0000000f0000000d0000000e0000000f0000000c000000
    material: {fileID: 2100000, guid: 9d9d6be7c81781649af793ee0a5630f4, type: 2}
    materialId: 0
    sourceTextureGUID: 5a7578125c1b3e4439b07d4ecdc5d455
    extractRegion: 0
    regionX: 0
    regionY: 0
    regionW: 0
    regionH: 0
    flipped: 0
    complexGeometry: 0
    colliderType: 0
    colliderVertices: []
    colliderIndicesFwd: 
    colliderIndicesBack: 
    colliderConvex: 0
    colliderSmoothSphereCollisions: 0
  - name: 1_Red
    boundsData:
    - {x: 20, y: -17, z: 0}
    - {x: 38, y: 34, z: 0}
    untrimmedBoundsData:
    - {x: 20.5, y: -18, z: 0}
    - {x: 41, y: 36, z: 0}
    texelSize: {x: 1, y: 1}
    positions:
    - {x: .99999994, y: -34, z: 0}
    - {x: 31.9999981, y: -34, z: 0}
    - {x: .99999994, y: -3.99999976, z: 0}
    - {x: 31.9999981, y: -3.99999976, z: 0}
    - {x: 3.99999976, y: -3.99999976, z: 0}
    - {x: 31.9999981, y: -3.99999976, z: 0}
    - {x: 3.99999976, y: 0, z: 0}
    - {x: 31.9999981, y: 0, z: 0}
    - {x: 31.9999981, y: -31, z: 0}
    - {x: 39, y: -31, z: 0}
    - {x: 31.9999981, y: -3.99999976, z: 0}
    - {x: 39, y: -3.99999976, z: 0}
    - {x: 31.9999981, y: -3.99999976, z: 0}
    - {x: 35, y: -3.99999976, z: 0}
    - {x: 31.9999981, y: -2.00000095, z: 0}
    - {x: 35, y: -2.00000095, z: 0}
    normals: []
    tangents: []
    uvs:
    - {x: .0156328119, y: .00781640597}
    - {x: .257804692, y: .00781640597}
    - {x: .0156328119, y: .124996096}
    - {x: .257804692, y: .124996096}
    - {x: .460945308, y: .906253934}
    - {x: .679679692, y: .906253934}
    - {x: .460945308, y: .921871066}
    - {x: .679679692, y: .921871066}
    - {x: .281257808, y: .937503934}
    - {x: .281257808, y: .964839816}
    - {x: .492179692, y: .937503934}
    - {x: .492179692, y: .964839816}
    - {x: .851570308, y: .824222684}
    - {x: .874992192, y: .824222684}
    - {x: .851570308, y: .832027316}
    - {x: .874992192, y: .832027316}
    indices: 000000000300000001000000020000000300000000000000040000000700000005000000060000000700000004000000080000000b000000090000000a0000000b000000080000000c0000000f0000000d0000000e0000000f0000000c000000
    material: {fileID: 2100000, guid: 9d9d6be7c81781649af793ee0a5630f4, type: 2}
    materialId: 0
    sourceTextureGUID: c2accae4fa6117043a8b115c00b47fa5
    extractRegion: 0
    regionX: 0
    regionY: 0
    regionW: 0
    regionH: 0
    flipped: 0
    complexGeometry: 0
    colliderType: 0
    colliderVertices: []
    colliderIndicesFwd: 
    colliderIndicesBack: 
    colliderConvex: 0
    colliderSmoothSphereCollisions: 0
  - name: 4_Red
    boundsData:
    - {x: 19, y: -19, z: 0}
    - {x: 36, y: 36, z: 0}
    untrimmedBoundsData:
    - {x: 19.5, y: -19.5, z: 0}
    - {x: 39, y: 39, z: 0}
    texelSize: {x: 1, y: 1}
    positions:
    - {x: 1, y: -37, z: 0}
    - {x: 32, y: -37, z: 0}
    - {x: 1, y: -6.99999952, z: 0}
    - {x: 32, y: -6.99999952, z: 0}
    - {x: 6, y: -6.99999952, z: 0}
    - {x: 32, y: -6.99999952, z: 0}
    - {x: 6, y: -.99999994, z: 0}
    - {x: 32, y: -.99999994, z: 0}
    - {x: 32, y: -33, z: 0}
    - {x: 37, y: -33, z: 0}
    - {x: 32, y: -6.99999952, z: 0}
    - {x: 37, y: -6.99999952, z: 0}
    - {x: 32, y: -6.99999952, z: 0}
    - {x: 36, y: -6.99999952, z: 0}
    - {x: 32, y: -1.99999988, z: 0}
    - {x: 36, y: -1.99999988, z: 0}
    normals: []
    tangents: []
    uvs:
    - {x: .289070308, y: .00781640597}
    - {x: .531242192, y: .00781640597}
    - {x: .289070308, y: .124996096}
    - {x: .531242192, y: .124996096}
    - {x: .781257808, y: .921878934}
    - {x: .984367192, y: .921878934}
    - {x: .781257808, y: .945308566}
    - {x: .984367192, y: .945308566}
    - {x: .710945308, y: .539066434}
    - {x: .749992192, y: .539066434}
    - {x: .710945308, y: .640621066}
    - {x: .749992192, y: .640621066}
    - {x: .781257808, y: .808597684}
    - {x: .781257808, y: .824214816}
    - {x: .820304692, y: .808597684}
    - {x: .820304692, y: .824214816}
    indices: 000000000300000001000000020000000300000000000000040000000700000005000000060000000700000004000000080000000b000000090000000a0000000b000000080000000c0000000f0000000d0000000e0000000f0000000c000000
    material: {fileID: 2100000, guid: 9d9d6be7c81781649af793ee0a5630f4, type: 2}
    materialId: 0
    sourceTextureGUID: c6c09a05b264f0749a65c062db4462bb
    extractRegion: 0
    regionX: 0
    regionY: 0
    regionW: 0
    regionH: 0
    flipped: 0
    complexGeometry: 0
    colliderType: 0
    colliderVertices: []
    colliderIndicesFwd: 
    colliderIndicesBack: 
    colliderConvex: 0
    colliderSmoothSphereCollisions: 0
  - name: 4_Purple
    boundsData:
    - {x: 19, y: -19, z: 0}
    - {x: 36, y: 36, z: 0}
    untrimmedBoundsData:
    - {x: 19.5, y: -19.5, z: 0}
    - {x: 39, y: 39, z: 0}
    texelSize: {x: 1, y: 1}
    positions:
    - {x: 1, y: -37, z: 0}
    - {x: 32, y: -37, z: 0}
    - {x: 1, y: -6.99999952, z: 0}
    - {x: 32, y: -6.99999952, z: 0}
    - {x: 6, y: -6.99999952, z: 0}
    - {x: 32, y: -6.99999952, z: 0}
    - {x: 6, y: -.99999994, z: 0}
    - {x: 32, y: -.99999994, z: 0}
    - {x: 32, y: -33, z: 0}
    - {x: 37, y: -33, z: 0}
    - {x: 32, y: -6.99999952, z: 0}
    - {x: 37, y: -6.99999952, z: 0}
    - {x: 32, y: -6.99999952, z: 0}
    - {x: 36, y: -6.99999952, z: 0}
    - {x: 32, y: -1.99999988, z: 0}
    - {x: 36, y: -1.99999988, z: 0}
    normals: []
    tangents: []
    uvs:
    - {x: .562507808, y: .00781640597}
    - {x: .804679692, y: .00781640597}
    - {x: .562507808, y: .124996096}
    - {x: .804679692, y: .124996096}
    - {x: .781257808, y: .539066434}
    - {x: .781257808, y: .640621066}
    - {x: .828117192, y: .539066434}
    - {x: .828117192, y: .640621066}
    - {x: .710945308, y: .656253934}
    - {x: .749992192, y: .656253934}
    - {x: .710945308, y: .757808566}
    - {x: .749992192, y: .757808566}
    - {x: .781257808, y: .839847684}
    - {x: .781257808, y: .855464816}
    - {x: .820304692, y: .839847684}
    - {x: .820304692, y: .855464816}
    indices: 000000000300000001000000020000000300000000000000040000000700000005000000060000000700000004000000080000000b000000090000000a0000000b000000080000000c0000000f0000000d0000000e0000000f0000000c000000
    material: {fileID: 2100000, guid: 9d9d6be7c81781649af793ee0a5630f4, type: 2}
    materialId: 0
    sourceTextureGUID: 746654c57288e8e4e86bd02c27fcb014
    extractRegion: 0
    regionX: 0
    regionY: 0
    regionW: 0
    regionH: 0
    flipped: 0
    complexGeometry: 0
    colliderType: 0
    colliderVertices: []
    colliderIndicesFwd: 
    colliderIndicesBack: 
    colliderConvex: 0
    colliderSmoothSphereCollisions: 0
  - name: 3
    boundsData:
    - {x: 24, y: -21.5, z: 0}
    - {x: 46, y: 39, z: 0}
    untrimmedBoundsData:
    - {x: 25, y: -21.5, z: 0}
    - {x: 50, y: 43, z: 0}
    texelSize: {x: 1, y: 1}
    positions:
    - {x: 1, y: -41, z: 0}
    - {x: 32, y: -41, z: 0}
    - {x: 1, y: -11, z: 0}
    - {x: 32, y: -11, z: 0}
    - {x: 2, y: -11, z: 0}
    - {x: 32, y: -11, z: 0}
    - {x: 2, y: -2.00000095, z: 0}
    - {x: 32, y: -2.00000095, z: 0}
    - {x: 32, y: -41, z: 0}
    - {x: 47, y: -41, z: 0}
    - {x: 32, y: -11, z: 0}
    - {x: 47, y: -11, z: 0}
    - {x: 32, y: -11, z: 0}
    - {x: 37, y: -11, z: 0}
    - {x: 32, y: -5, z: 0}
    - {x: 37, y: -5, z: 0}
    normals: []
    tangents: []
    uvs:
    - {x: .0156328119, y: .140628904}
    - {x: .257804692, y: .140628904}
    - {x: .0156328119, y: .257808596}
    - {x: .257804692, y: .257808596}
    - {x: .0156328119, y: .937503934}
    - {x: .249992192, y: .937503934}
    - {x: .0156328119, y: .972652316}
    - {x: .249992192, y: .972652316}
    - {x: .835945308, y: .00781640597}
    - {x: .953117192, y: .00781640597}
    - {x: .835945308, y: .124996096}
    - {x: .953117192, y: .124996096}
    - {x: .906257808, y: .960941434}
    - {x: .945304692, y: .960941434}
    - {x: .906257808, y: .984371066}
    - {x: .945304692, y: .984371066}
    indices: 000000000300000001000000020000000300000000000000040000000700000005000000060000000700000004000000080000000b000000090000000a0000000b000000080000000c0000000f0000000d0000000e0000000f0000000c000000
    material: {fileID: 2100000, guid: 9d9d6be7c81781649af793ee0a5630f4, type: 2}
    materialId: 0
    sourceTextureGUID: 3c35f15632120bb4f9819f75267a79a2
    extractRegion: 0
    regionX: 0
    regionY: 0
    regionW: 0
    regionH: 0
    flipped: 0
    complexGeometry: 0
    colliderType: 0
    colliderVertices: []
    colliderIndicesFwd: 
    colliderIndicesBack: 
    colliderConvex: 0
    colliderSmoothSphereCollisions: 0
  - name: 5_Purple
    boundsData:
    - {x: 21, y: -19, z: 0}
    - {x: 38, y: 36, z: 0}
    untrimmedBoundsData:
    - {x: 21, y: -19.5, z: 0}
    - {x: 42, y: 39, z: 0}
    texelSize: {x: 1, y: 1}
    positions:
    - {x: 2, y: -37, z: 0}
    - {x: 32, y: -37, z: 0}
    - {x: 2, y: -6.99999952, z: 0}
    - {x: 32, y: -6.99999952, z: 0}
    - {x: 3.00000024, y: -6.99999952, z: 0}
    - {x: 32, y: -6.99999952, z: 0}
    - {x: 3.00000024, y: -.99999994, z: 0}
    - {x: 32, y: -.99999994, z: 0}
    - {x: 32, y: -36, z: 0}
    - {x: 40, y: -36, z: 0}
    - {x: 32, y: -6.99999952, z: 0}
    - {x: 40, y: -6.99999952, z: 0}
    - {x: 32, y: -6.99999952, z: 0}
    - {x: 34, y: -6.99999952, z: 0}
    - {x: 32, y: -3.99999976, z: 0}
    - {x: 34, y: -3.99999976, z: 0}
    normals: []
    tangents: []
    uvs:
    - {x: .281257808, y: .406253904}
    - {x: .515617192, y: .406253904}
    - {x: .281257808, y: .523433566}
    - {x: .515617192, y: .523433566}
    - {x: .906257808, y: .664066434}
    - {x: .906257808, y: .777339816}
    - {x: .953117192, y: .664066434}
    - {x: .953117192, y: .777339816}
    - {x: .921882808, y: .535160184}
    - {x: .984367192, y: .535160184}
    - {x: .921882808, y: .648433566}
    - {x: .984367192, y: .648433566}
    - {x: .859382808, y: .769535184}
    - {x: .874992192, y: .769535184}
    - {x: .859382808, y: .781246066}
    - {x: .874992192, y: .781246066}
    indices: 000000000300000001000000020000000300000000000000040000000700000005000000060000000700000004000000080000000b000000090000000a0000000b000000080000000c0000000f0000000d0000000e0000000f0000000c000000
    material: {fileID: 2100000, guid: 9d9d6be7c81781649af793ee0a5630f4, type: 2}
    materialId: 0
    sourceTextureGUID: b04e2f578f5304b42bca80bd550e029f
    extractRegion: 0
    regionX: 0
    regionY: 0
    regionW: 0
    regionH: 0
    flipped: 0
    complexGeometry: 0
    colliderType: 0
    colliderVertices: []
    colliderIndicesFwd: 
    colliderIndicesBack: 
    colliderConvex: 0
    colliderSmoothSphereCollisions: 0
  - name: 3_Purple
    boundsData:
    - {x: 24, y: -21.5, z: 0}
    - {x: 46, y: 39, z: 0}
    untrimmedBoundsData:
    - {x: 25, y: -21.5, z: 0}
    - {x: 50, y: 43, z: 0}
    texelSize: {x: 1, y: 1}
    positions:
    - {x: 1, y: -41, z: 0}
    - {x: 32, y: -41, z: 0}
    - {x: 1, y: -11, z: 0}
    - {x: 32, y: -11, z: 0}
    - {x: 2, y: -11, z: 0}
    - {x: 32, y: -11, z: 0}
    - {x: 2, y: -2.00000095, z: 0}
    - {x: 32, y: -2.00000095, z: 0}
    - {x: 32, y: -41, z: 0}
    - {x: 47, y: -41, z: 0}
    - {x: 32, y: -11, z: 0}
    - {x: 47, y: -11, z: 0}
    - {x: 32, y: -11, z: 0}
    - {x: 37, y: -11, z: 0}
    - {x: 32, y: -5, z: 0}
    - {x: 37, y: -5, z: 0}
    normals: []
    tangents: []
    uvs:
    - {x: .289070308, y: .140628904}
    - {x: .531242192, y: .140628904}
    - {x: .289070308, y: .257808596}
    - {x: .531242192, y: .257808596}
    - {x: .281257808, y: .539066434}
    - {x: .515617192, y: .539066434}
    - {x: .281257808, y: .574214816}
    - {x: .515617192, y: .574214816}
    - {x: .835945308, y: .140628904}
    - {x: .953117192, y: .140628904}
    - {x: .835945308, y: .257808596}
    - {x: .953117192, y: .257808596}
    - {x: .710945308, y: .890628934}
    - {x: .749992192, y: .890628934}
    - {x: .710945308, y: .914058566}
    - {x: .749992192, y: .914058566}
    indices: 000000000300000001000000020000000300000000000000040000000700000005000000060000000700000004000000080000000b000000090000000a0000000b000000080000000c0000000f0000000d0000000e0000000f0000000c000000
    material: {fileID: 2100000, guid: 9d9d6be7c81781649af793ee0a5630f4, type: 2}
    materialId: 0
    sourceTextureGUID: 448515877f6625d46804d2dd5cf8b859
    extractRegion: 0
    regionX: 0
    regionY: 0
    regionW: 0
    regionH: 0
    flipped: 0
    complexGeometry: 0
    colliderType: 0
    colliderVertices: []
    colliderIndicesFwd: 
    colliderIndicesBack: 
    colliderConvex: 0
    colliderSmoothSphereCollisions: 0
  - name: 3_Red
    boundsData:
    - {x: 24, y: -21.5, z: 0}
    - {x: 46, y: 39, z: 0}
    untrimmedBoundsData:
    - {x: 25, y: -21.5, z: 0}
    - {x: 50, y: 43, z: 0}
    texelSize: {x: 1, y: 1}
    positions:
    - {x: 1, y: -41, z: 0}
    - {x: 32, y: -41, z: 0}
    - {x: 1, y: -11, z: 0}
    - {x: 32, y: -11, z: 0}
    - {x: 2, y: -11, z: 0}
    - {x: 32, y: -11, z: 0}
    - {x: 2, y: -2.00000095, z: 0}
    - {x: 32, y: -2.00000095, z: 0}
    - {x: 32, y: -41, z: 0}
    - {x: 47, y: -41, z: 0}
    - {x: 32, y: -11, z: 0}
    - {x: 47, y: -11, z: 0}
    - {x: 32, y: -11, z: 0}
    - {x: 37, y: -11, z: 0}
    - {x: 32, y: -5, z: 0}
    - {x: 37, y: -5, z: 0}
    normals: []
    tangents: []
    uvs:
    - {x: .562507808, y: .140628904}
    - {x: .804679692, y: .140628904}
    - {x: .562507808, y: .257808596}
    - {x: .804679692, y: .257808596}
    - {x: .281257808, y: .589847684}
    - {x: .515617192, y: .589847684}
    - {x: .281257808, y: .624996066}
    - {x: .515617192, y: .624996066}
    - {x: .835945308, y: .273441404}
    - {x: .953117192, y: .273441404}
    - {x: .835945308, y: .390621096}
    - {x: .953117192, y: .390621096}
    - {x: .781257808, y: .773441434}
    - {x: .781257808, y: .792964816}
    - {x: .828117192, y: .773441434}
    - {x: .828117192, y: .792964816}
    indices: 000000000300000001000000020000000300000000000000040000000700000005000000060000000700000004000000080000000b000000090000000a0000000b000000080000000c0000000f0000000d0000000e0000000f0000000c000000
    material: {fileID: 2100000, guid: 9d9d6be7c81781649af793ee0a5630f4, type: 2}
    materialId: 0
    sourceTextureGUID: 1c3cef089e87cda4aaea4381d6375c31
    extractRegion: 0
    regionX: 0
    regionY: 0
    regionW: 0
    regionH: 0
    flipped: 0
    complexGeometry: 0
    colliderType: 0
    colliderVertices: []
    colliderIndicesFwd: 
    colliderIndicesBack: 
    colliderConvex: 0
    colliderSmoothSphereCollisions: 0
  - name: 4
    boundsData:
    - {x: 19, y: -19, z: 0}
    - {x: 36, y: 36, z: 0}
    untrimmedBoundsData:
    - {x: 19.5, y: -19.5, z: 0}
    - {x: 39, y: 39, z: 0}
    texelSize: {x: 1, y: 1}
    positions:
    - {x: 1, y: -37, z: 0}
    - {x: 32, y: -37, z: 0}
    - {x: 1, y: -6.99999952, z: 0}
    - {x: 32, y: -6.99999952, z: 0}
    - {x: 6, y: -6.99999952, z: 0}
    - {x: 32, y: -6.99999952, z: 0}
    - {x: 6, y: -.99999994, z: 0}
    - {x: 32, y: -.99999994, z: 0}
    - {x: 32, y: -33, z: 0}
    - {x: 37, y: -33, z: 0}
    - {x: 32, y: -6.99999952, z: 0}
    - {x: 37, y: -6.99999952, z: 0}
    - {x: 32, y: -6.99999952, z: 0}
    - {x: 36, y: -6.99999952, z: 0}
    - {x: 32, y: -1.99999988, z: 0}
    - {x: 36, y: -1.99999988, z: 0}
    normals: []
    tangents: []
    uvs:
    - {x: .0156328119, y: .273441404}
    - {x: .257804692, y: .273441404}
    - {x: .0156328119, y: .390621096}
    - {x: .257804692, y: .390621096}
    - {x: .781257808, y: .656253934}
    - {x: .781257808, y: .757808566}
    - {x: .828117192, y: .656253934}
    - {x: .828117192, y: .757808566}
    - {x: .710945308, y: .773441434}
    - {x: .749992192, y: .773441434}
    - {x: .710945308, y: .874996066}
    - {x: .749992192, y: .874996066}
    - {x: .781257808, y: .871097684}
    - {x: .812492192, y: .871097684}
    - {x: .781257808, y: .890621066}
    - {x: .812492192, y: .890621066}
    indices: 000000000300000001000000020000000300000000000000040000000700000005000000060000000700000004000000080000000b000000090000000a0000000b000000080000000c0000000f0000000d0000000e0000000f0000000c000000
    material: {fileID: 2100000, guid: 9d9d6be7c81781649af793ee0a5630f4, type: 2}
    materialId: 0
    sourceTextureGUID: b2ea35b92f4c88748b2da98d418de26f
    extractRegion: 0
    regionX: 0
    regionY: 0
    regionW: 0
    regionH: 0
    flipped: 0
    complexGeometry: 0
    colliderType: 0
    colliderVertices: []
    colliderIndicesFwd: 
    colliderIndicesBack: 
    colliderConvex: 0
    colliderSmoothSphereCollisions: 0
  - name: 1_Purple
    boundsData:
    - {x: 20, y: -17, z: 0}
    - {x: 38, y: 34, z: 0}
    untrimmedBoundsData:
    - {x: 20.5, y: -18, z: 0}
    - {x: 41, y: 36, z: 0}
    texelSize: {x: 1, y: 1}
    positions:
    - {x: .99999994, y: -34, z: 0}
    - {x: 31.9999981, y: -34, z: 0}
    - {x: .99999994, y: -3.99999976, z: 0}
    - {x: 31.9999981, y: -3.99999976, z: 0}
    - {x: 3.99999976, y: -3.99999976, z: 0}
    - {x: 31.9999981, y: -3.99999976, z: 0}
    - {x: 3.99999976, y: 0, z: 0}
    - {x: 31.9999981, y: 0, z: 0}
    - {x: 31.9999981, y: -31, z: 0}
    - {x: 39, y: -31, z: 0}
    - {x: 31.9999981, y: -3.99999976, z: 0}
    - {x: 39, y: -3.99999976, z: 0}
    - {x: 31.9999981, y: -3.99999976, z: 0}
    - {x: 35, y: -3.99999976, z: 0}
    - {x: 31.9999981, y: -2.00000095, z: 0}
    - {x: 35, y: -2.00000095, z: 0}
    normals: []
    tangents: []
    uvs:
    - {x: .289070308, y: .273441404}
    - {x: .531242192, y: .273441404}
    - {x: .289070308, y: .390621096}
    - {x: .531242192, y: .390621096}
    - {x: .656257808, y: .976566434}
    - {x: .874992192, y: .976566434}
    - {x: .656257808, y: .992183566}
    - {x: .874992192, y: .992183566}
    - {x: .367195308, y: .785160184}
    - {x: .421867192, y: .785160184}
    - {x: .367195308, y: .890621066}
    - {x: .421867192, y: .890621066}
    - {x: .851570308, y: .847660184}
    - {x: .874992192, y: .847660184}
    - {x: .851570308, y: .855464816}
    - {x: .874992192, y: .855464816}
    indices: 000000000300000001000000020000000300000000000000040000000700000005000000060000000700000004000000080000000b000000090000000a0000000b000000080000000c0000000f0000000d0000000e0000000f0000000c000000
    material: {fileID: 2100000, guid: 9d9d6be7c81781649af793ee0a5630f4, type: 2}
    materialId: 0
    sourceTextureGUID: 7f0fa94ac9d3a754eaadfc94e4c9e34f
    extractRegion: 0
    regionX: 0
    regionY: 0
    regionW: 0
    regionH: 0
    flipped: 0
    complexGeometry: 0
    colliderType: 0
    colliderVertices: []
    colliderIndicesFwd: 
    colliderIndicesBack: 
    colliderConvex: 0
    colliderSmoothSphereCollisions: 0
  - name: 1
    boundsData:
    - {x: 20, y: -17, z: 0}
    - {x: 38, y: 34, z: 0}
    untrimmedBoundsData:
    - {x: 20.5, y: -18, z: 0}
    - {x: 41, y: 36, z: 0}
    texelSize: {x: 1, y: 1}
    positions:
    - {x: .99999994, y: -34, z: 0}
    - {x: 31.9999981, y: -34, z: 0}
    - {x: .99999994, y: -3.99999976, z: 0}
    - {x: 31.9999981, y: -3.99999976, z: 0}
    - {x: 3.99999976, y: -3.99999976, z: 0}
    - {x: 31.9999981, y: -3.99999976, z: 0}
    - {x: 3.99999976, y: 0, z: 0}
    - {x: 31.9999981, y: 0, z: 0}
    - {x: 31.9999981, y: -31, z: 0}
    - {x: 39, y: -31, z: 0}
    - {x: 31.9999981, y: -3.99999976, z: 0}
    - {x: 39, y: -3.99999976, z: 0}
    - {x: 31.9999981, y: -3.99999976, z: 0}
    - {x: 35, y: -3.99999976, z: 0}
    - {x: 31.9999981, y: -2.00000095, z: 0}
    - {x: 35, y: -2.00000095, z: 0}
    normals: []
    tangents: []
    uvs:
    - {x: .562507808, y: .273441404}
    - {x: .804679692, y: .273441404}
    - {x: .562507808, y: .390621096}
    - {x: .804679692, y: .390621096}
    - {x: .859382808, y: .539066434}
    - {x: .859382808, y: .648433566}
    - {x: .890617192, y: .539066434}
    - {x: .890617192, y: .648433566}
    - {x: .453132808, y: .785160184}
    - {x: .507804692, y: .785160184}
    - {x: .453132808, y: .890621066}
    - {x: .507804692, y: .890621066}
    - {x: .843757808, y: .871097684}
    - {x: .867179692, y: .871097684}
    - {x: .843757808, y: .878902316}
    - {x: .867179692, y: .878902316}
    indices: 000000000300000001000000020000000300000000000000040000000700000005000000060000000700000004000000080000000b000000090000000a0000000b000000080000000c0000000f0000000d0000000e0000000f0000000c000000
    material: {fileID: 2100000, guid: 9d9d6be7c81781649af793ee0a5630f4, type: 2}
    materialId: 0
    sourceTextureGUID: e8c04aeabba66674b9d57dbac42037cc
    extractRegion: 0
    regionX: 0
    regionY: 0
    regionW: 0
    regionH: 0
    flipped: 0
    complexGeometry: 0
    colliderType: 0
    colliderVertices: []
    colliderIndicesFwd: 
    colliderIndicesBack: 
    colliderConvex: 0
    colliderSmoothSphereCollisions: 0
  - name: 2
    boundsData:
    - {x: 17.5, y: -20.5, z: 0}
    - {x: 33, y: 39, z: 0}
    untrimmedBoundsData:
    - {x: 18, y: -21.5, z: 0}
    - {x: 36, y: 43, z: 0}
    texelSize: {x: 1, y: 1}
    positions:
    - {x: 1, y: -40, z: 0}
    - {x: 32, y: -40, z: 0}
    - {x: 1, y: -11, z: 0}
    - {x: 32, y: -11, z: 0}
    - {x: 2, y: -11, z: 0}
    - {x: 32, y: -11, z: 0}
    - {x: 2, y: -1.00000048, z: 0}
    - {x: 32, y: -1.00000048, z: 0}
    - {x: 32, y: -31, z: 0}
    - {x: 34, y: -31, z: 0}
    - {x: 32, y: -11, z: 0}
    - {x: 34, y: -11, z: 0}
    - {x: 32, y: -11, z: 0}
    - {x: 34, y: -11, z: 0}
    - {x: 32, y: -5, z: 0}
    - {x: 34, y: -5, z: 0}
    normals: []
    tangents: []
    uvs:
    - {x: .0156328119, y: .800785184}
    - {x: .0156328119, y: .921871066}
    - {x: .242179692, y: .800785184}
    - {x: .242179692, y: .921871066}
    - {x: .0156328119, y: .539066434}
    - {x: .249992192, y: .539066434}
    - {x: .0156328119, y: .578121066}
    - {x: .249992192, y: .578121066}
    - {x: .281257808, y: .980472684}
    - {x: .281257808, y: .988277316}
    - {x: .437492192, y: .980472684}
    - {x: .437492192, y: .988277316}
    - {x: .859382808, y: .664066434}
    - {x: .874992192, y: .664066434}
    - {x: .859382808, y: .687496066}
    - {x: .874992192, y: .687496066}
    indices: 000000000300000001000000020000000300000000000000040000000700000005000000060000000700000004000000080000000b000000090000000a0000000b000000080000000c0000000f0000000d0000000e0000000f0000000c000000
    material: {fileID: 2100000, guid: 9d9d6be7c81781649af793ee0a5630f4, type: 2}
    materialId: 0
    sourceTextureGUID: 071d819b63a3c7d4d8440162ae7cd42f
    extractRegion: 0
    regionX: 0
    regionY: 0
    regionW: 0
    regionH: 0
    flipped: 0
    complexGeometry: 0
    colliderType: 0
    colliderVertices: []
    colliderIndicesFwd: 
    colliderIndicesBack: 
    colliderConvex: 0
    colliderSmoothSphereCollisions: 0
  - name: 5_Red
    boundsData:
    - {x: 21, y: -19, z: 0}
    - {x: 38, y: 36, z: 0}
    untrimmedBoundsData:
    - {x: 21, y: -19.5, z: 0}
    - {x: 42, y: 39, z: 0}
    texelSize: {x: 1, y: 1}
    positions:
    - {x: 2, y: -37, z: 0}
    - {x: 32, y: -37, z: 0}
    - {x: 2, y: -6.99999952, z: 0}
    - {x: 32, y: -6.99999952, z: 0}
    - {x: 3.00000024, y: -6.99999952, z: 0}
    - {x: 32, y: -6.99999952, z: 0}
    - {x: 3.00000024, y: -.99999994, z: 0}
    - {x: 32, y: -.99999994, z: 0}
    - {x: 32, y: -36, z: 0}
    - {x: 40, y: -36, z: 0}
    - {x: 32, y: -6.99999952, z: 0}
    - {x: 40, y: -6.99999952, z: 0}
    - {x: 32, y: -6.99999952, z: 0}
    - {x: 34, y: -6.99999952, z: 0}
    - {x: 32, y: -3.99999976, z: 0}
    - {x: 34, y: -3.99999976, z: 0}
    normals: []
    tangents: []
    uvs:
    - {x: .546882808, y: .406253904}
    - {x: .781242192, y: .406253904}
    - {x: .546882808, y: .523433566}
    - {x: .781242192, y: .523433566}
    - {x: .906257808, y: .792972684}
    - {x: .906257808, y: .906246066}
    - {x: .953117192, y: .792972684}
    - {x: .953117192, y: .906246066}
    - {x: .273445308, y: .785160184}
    - {x: .335929692, y: .785160184}
    - {x: .273445308, y: .898433566}
    - {x: .335929692, y: .898433566}
    - {x: .859382808, y: .796878934}
    - {x: .874992192, y: .796878934}
    - {x: .859382808, y: .808589816}
    - {x: .874992192, y: .808589816}
    indices: 000000000300000001000000020000000300000000000000040000000700000005000000060000000700000004000000080000000b000000090000000a0000000b000000080000000c0000000f0000000d0000000e0000000f0000000c000000
    material: {fileID: 2100000, guid: 9d9d6be7c81781649af793ee0a5630f4, type: 2}
    materialId: 0
    sourceTextureGUID: 68022c9bb01779a4d934e1e308b9b89c
    extractRegion: 0
    regionX: 0
    regionY: 0
    regionW: 0
    regionH: 0
    flipped: 0
    complexGeometry: 0
    colliderType: 0
    colliderVertices: []
    colliderIndicesFwd: 
    colliderIndicesBack: 
    colliderConvex: 0
    colliderSmoothSphereCollisions: 0
  - name: 2_Purple
    boundsData:
    - {x: 17.5, y: -20.5, z: 0}
    - {x: 33, y: 39, z: 0}
    untrimmedBoundsData:
    - {x: 18, y: -21.5, z: 0}
    - {x: 36, y: 43, z: 0}
    texelSize: {x: 1, y: 1}
    positions:
    - {x: 1, y: -40, z: 0}
    - {x: 32, y: -40, z: 0}
    - {x: 1, y: -11, z: 0}
    - {x: 32, y: -11, z: 0}
    - {x: 2, y: -11, z: 0}
    - {x: 32, y: -11, z: 0}
    - {x: 2, y: -1.00000048, z: 0}
    - {x: 32, y: -1.00000048, z: 0}
    - {x: 32, y: -31, z: 0}
    - {x: 34, y: -31, z: 0}
    - {x: 32, y: -11, z: 0}
    - {x: 34, y: -11, z: 0}
    - {x: 32, y: -11, z: 0}
    - {x: 34, y: -11, z: 0}
    - {x: 32, y: -5, z: 0}
    - {x: 34, y: -5, z: 0}
    normals: []
    tangents: []
    uvs:
    - {x: .273445308, y: .648441434}
    - {x: .273445308, y: .769527316}
    - {x: .499992192, y: .648441434}
    - {x: .499992192, y: .769527316}
    - {x: .0156328119, y: .593753934}
    - {x: .249992192, y: .593753934}
    - {x: .0156328119, y: .632808566}
    - {x: .249992192, y: .632808566}
    - {x: .468757808, y: .980472684}
    - {x: .468757808, y: .988277316}
    - {x: .624992192, y: .980472684}
    - {x: .624992192, y: .988277316}
    - {x: .859382808, y: .703128934}
    - {x: .874992192, y: .703128934}
    - {x: .859382808, y: .726558566}
    - {x: .874992192, y: .726558566}
    indices: 000000000300000001000000020000000300000000000000040000000700000005000000060000000700000004000000080000000b000000090000000a0000000b000000080000000c0000000f0000000d0000000e0000000f0000000c000000
    material: {fileID: 2100000, guid: 9d9d6be7c81781649af793ee0a5630f4, type: 2}
    materialId: 0
    sourceTextureGUID: ffbd735d85fdcd947a26e51378210549
    extractRegion: 0
    regionX: 0
    regionY: 0
    regionW: 0
    regionH: 0
    flipped: 0
    complexGeometry: 0
    colliderType: 0
    colliderVertices: []
    colliderIndicesFwd: 
    colliderIndicesBack: 
    colliderConvex: 0
    colliderSmoothSphereCollisions: 0
  premultipliedAlpha: 0
  material: {fileID: 0}
  materials:
  - {fileID: 2100000, guid: 9d9d6be7c81781649af793ee0a5630f4, type: 2}
  textures:
  - {fileID: 2800000, guid: 978f5c42677e87a42bd49b9149ff8070, type: 3}
  allowMultipleAtlases: 0
  spriteCollectionGUID: ec64a38026f40da4baa9b7c6358bc4ef
  spriteCollectionName: Markers
  assetName: 
  loadable: 0
  invOrthoSize: .00265957438
  halfTargetHeight: 376
  buildKey: 1723368420
  dataGuid: bc1c782cd6752c24e8133adaf7692303
  managedSpriteCollection: 0
  hasPlatformData: 0
  spriteCollectionPlatforms: []
  spriteCollectionPlatformGUIDs: []
--- !u!1001 &100100000
Prefab:
  m_ObjectHideFlags: 1
  serializedVersion: 2
  m_Modification:
    m_TransformParent: {fileID: 0}
    m_Modifications: []
    m_RemovedComponents: []
  m_ParentPrefab: {fileID: 0}
  m_RootGameObject: {fileID: 100000}
  m_IsPrefabParent: 1
  m_IsExploded: 1
