%YAML 1.1
%TAG !u! tag:unity3d.com,2011:
--- !u!1 &100000
GameObject:
  m_ObjectHideFlags: 0
  m_PrefabParentObject: {fileID: 0}
  m_PrefabInternal: {fileID: 100100000}
  serializedVersion: 4
  m_Component:
  - 4: {fileID: 400000}
  - 114: {fileID: 11400000}
  m_Layer: 0
  m_Name: CommunicationBridgePauseScreenAssets
  m_TagString: Untagged
  m_Icon: {fileID: 0}
  m_NavMeshLayer: 0
  m_StaticEditorFlags: 0
  m_IsActive: 0
--- !u!4 &400000
Transform:
  m_ObjectHideFlags: 1
  m_PrefabParentObject: {fileID: 0}
  m_PrefabInternal: {fileID: 100100000}
  m_GameObject: {fileID: 100000}
  m_LocalRotation: {x: 0, y: 0, z: 0, w: 1}
  m_LocalPosition: {x: 0, y: 0, z: 0}
  m_LocalScale: {x: 1, y: 1, z: 1}
  m_Children: []
  m_Father: {fileID: 0}
  m_RootOrder: 0
--- !u!114 &11400000
MonoBehaviour:
  m_ObjectHideFlags: 0
  m_PrefabParentObject: {fileID: 0}
  m_PrefabInternal: {fileID: 100100000}
  m_GameObject: {fileID: 100000}
  m_Enabled: 1
  m_EditorHideFlags: 0
  m_Script: {fileID: 11500000, guid: 84c7a4b4ee15890498f818262bca0312, type: 3}
  m_Name: 
  m_EditorClassIdentifier: 
  textures: []
  textureRefs: []
  spriteSheets: []
  fonts: []
  defaults:
    additive: 0
    scale: {x: 1, y: 1, z: 1}
    anchor: 4
    pad: 0
    colliderType: 0
  platforms:
  - name: 
    spriteCollection: {fileID: 0}
  managedSpriteCollection: 0
  loadable: 0
  maxTextureSize: 1024
  forceTextureSize: 0
  forcedTextureWidth: 1024
  forcedTextureHeight: 1024
  textureCompression: 0
  atlasWidth: 512
  atlasHeight: 1024
  forceSquareAtlas: 0
  atlasWastage: 36.4189148
  allowMultipleAtlases: 0
  textureParams:
  - name: PopupOverlay
    disableTrimming: 0
    additive: 0
    scale: {x: 1, y: 1, z: 1}
    texture: {fileID: 2800000, guid: 31f06429a150e784697cdd0a32ef5bc5, type: 3}
    materialId: 0
    anchor: 4
    anchorX: 1
    anchorY: 1
    overrideMesh: {fileID: 0}
    doubleSidedSprite: 0
    customSpriteGeometry: 0
    geometryIslands: []
    dice: 0
    diceUnitX: 64
    diceUnitY: 0
    pad: 0
    extraPadding: 0
    source: 0
    fromSpriteSheet: 0
    hasSpriteSheetId: 0
    spriteSheetId: 0
    spriteSheetX: 0
    spriteSheetY: 0
    extractRegion: 0
    regionX: 0
    regionY: 0
    regionW: 0
    regionH: 0
    regionId: 0
    colliderType: 0
    boxColliderMin: {x: 0, y: 0}
    boxColliderMax: {x: 0, y: 0}
    polyColliderIslands: []
    polyColliderCap: 0
    colliderConvex: 0
    colliderSmoothSphereCollisions: 0
    colliderColor: 0
  - name: popup_pause_pt
    disableTrimming: 0
    additive: 0
    scale: {x: 1, y: 1, z: 1}
    texture: {fileID: 2800000, guid: 4d17220876d0fb742b3094bf99729161, type: 3}
    materialId: 0
    anchor: 4
    anchorX: 432
    anchorY: 190
    overrideMesh: {fileID: 0}
    doubleSidedSprite: 0
    customSpriteGeometry: 0
    geometryIslands: []
    dice: 0
    diceUnitX: 64
    diceUnitY: 0
    pad: 0
    extraPadding: 0
    source: 0
    fromSpriteSheet: 0
    hasSpriteSheetId: 0
    spriteSheetId: 0
    spriteSheetX: 0
    spriteSheetY: 0
    extractRegion: 0
    regionX: 0
    regionY: 0
    regionW: 0
    regionH: 0
    regionId: 0
    colliderType: 0
    boxColliderMin: {x: 0, y: 0}
    boxColliderMax: {x: 0, y: 0}
    polyColliderIslands: []
    polyColliderCap: 0
    colliderConvex: 0
    colliderSmoothSphereCollisions: 0
    colliderColor: 0
  spriteCollection: {fileID: 11400000, guid: 04d5e962d3d65cc488549ee196544a06, type: 2}
  premultipliedAlpha: 0
  altMaterials:
  - {fileID: 2100000, guid: 6669829e58f4aa64baf4e690fbf1c3a4, type: 2}
  atlasMaterials:
  - {fileID: 2100000, guid: 6669829e58f4aa64baf4e690fbf1c3a4, type: 2}
  atlasTextures:
  - {fileID: 2800000, guid: 4af1b1c65e2c22d42bff58fd65a463ee, type: 3}
  useTk2dCamera: 0
  targetHeight: 752
  targetOrthoSize: 376
  globalScale: 1
  pixelPerfectPointSampled: 0
  filterMode: 1
  wrapMode: 1
  userDefinedTextureSettings: 0
  mipmapEnabled: 0
  anisoLevel: 1
  physicsDepth: .100000001
  disableTrimming: 0
  normalGenerationMode: 0
  padAmount: -1
  autoUpdate: 1
  editorDisplayScale: 1
  version: 3
  assetName: 
--- !u!1001 &100100000
Prefab:
  m_ObjectHideFlags: 1
  serializedVersion: 2
  m_Modification:
    m_TransformParent: {fileID: 0}
    m_Modifications: []
    m_RemovedComponents: []
  m_ParentPrefab: {fileID: 0}
  m_RootGameObject: {fileID: 100000}
  m_IsPrefabParent: 1
  m_IsExploded: 1
