%YAML 1.1
%TAG !u! tag:unity3d.com,2011:
--- !u!1 &100000
GameObject:
  m_ObjectHideFlags: 0
  m_PrefabParentObject: {fileID: 0}
  m_PrefabInternal: {fileID: 100100000}
  serializedVersion: 4
  m_Component:
  - 4: {fileID: 400000}
  - 114: {fileID: 11400000}
  m_Layer: 0
  m_Name: BlackBG
  m_TagString: Untagged
  m_Icon: {fileID: 0}
  m_NavMeshLayer: 0
  m_StaticEditorFlags: 0
  m_IsActive: 1
--- !u!4 &400000
Transform:
  m_ObjectHideFlags: 1
  m_PrefabParentObject: {fileID: 0}
  m_PrefabInternal: {fileID: 100100000}
  m_GameObject: {fileID: 100000}
  m_LocalRotation: {x: 0, y: 0, z: 0, w: 1}
  m_LocalPosition: {x: 0, y: 0, z: 0}
  m_LocalScale: {x: 1, y: 1, z: 1}
  m_Children: []
  m_Father: {fileID: 0}
  m_RootOrder: 0
--- !u!114 &11400000
MonoBehaviour:
  m_ObjectHideFlags: 1
  m_PrefabParentObject: {fileID: 0}
  m_PrefabInternal: {fileID: 100100000}
  m_GameObject: {fileID: 100000}
  m_Enabled: 1
  m_EditorHideFlags: 0
  m_Script: {fileID: 11500000, guid: d546f34a90531a14eaba82a43b05b86b, type: 3}
  m_Name: 
  m_EditorClassIdentifier: 
  version: 3
  materialIdsValid: 1
  needMaterialInstance: 0
  spriteDefinitions:
  - name: blackpixel1x1
    boundsData:
    - {x: 1, y: -1, z: 0}
    - {x: 2, y: 2, z: 0}
    untrimmedBoundsData:
    - {x: 1, y: -1, z: 0}
    - {x: 2, y: 2, z: 0}
    texelSize: {x: 1, y: 1}
    positions:
    - {x: 0, y: -2, z: 0}
    - {x: 2, y: -2, z: 0}
    - {x: 0, y: 0, z: 0}
    - {x: 2, y: 0, z: 0}
    normals: []
    tangents: []
    uvs:
    - {x: .000500000024, y: .000500000024}
    - {x: .999499977, y: .000500000024}
    - {x: .000500000024, y: .999499977}
    - {x: .999499977, y: .999499977}
    indices: 000000000300000001000000020000000300000000000000
    material: {fileID: 2100000, guid: 9202ea03ad9ff6d45b7d6f22cd62389d, type: 2}
    materialId: 0
    sourceTextureGUID: fc398245827b55d4ca0d40f4ec11fb38
    extractRegion: 0
    regionX: 0
    regionY: 0
    regionW: 0
    regionH: 0
    flipped: 0
    complexGeometry: 0
    colliderType: 0
    colliderVertices: []
    colliderIndicesFwd: 
    colliderIndicesBack: 
    colliderConvex: 0
    colliderSmoothSphereCollisions: 0
  premultipliedAlpha: 0
  material: {fileID: 0}
  materials:
  - {fileID: 2100000, guid: 9202ea03ad9ff6d45b7d6f22cd62389d, type: 2}
  textures:
  - {fileID: 2800000, guid: b247cb5d70c75fa45824191fd544302e, type: 3}
  allowMultipleAtlases: 0
  spriteCollectionGUID: 4963f0ff3c4e0e549a77f779e1afb21b
  spriteCollectionName: BlackBG
  assetName: 
  loadable: 0
  invOrthoSize: .00265957438
  halfTargetHeight: 376
  buildKey: 291421929
  dataGuid: f70aebec61a38c742944ab128bc65a8b
  managedSpriteCollection: 0
  hasPlatformData: 0
  spriteCollectionPlatforms: []
  spriteCollectionPlatformGUIDs: []
--- !u!1001 &100100000
Prefab:
  m_ObjectHideFlags: 1
  serializedVersion: 2
  m_Modification:
    m_TransformParent: {fileID: 0}
    m_Modifications: []
    m_RemovedComponents: []
  m_ParentPrefab: {fileID: 0}
  m_RootGameObject: {fileID: 100000}
  m_IsPrefabParent: 1
  m_IsExploded: 1
